{
	"/demos/": {
		"GET": {
			"controllerPath": "/var/www/local.dev/demos/controllers/HomeController.php",
			"controller": "HomeController",
			"function": "index"
		}
	},
	"/demos/pok/?": {
		"GET": {
			"controllerPath": "/var/www/local.dev/demos/controllers/HomeController.php",
			"controller": "HomeController",
			"function": "index"
		}
	}
}